#!/usr/bin/python
# vim: syn=python

import sys;
import re;
import os;
import time;

submit_delay=151

def do_submit(c, q, j, b, t, x):
  print time.ctime(), 'submit', c, 'to', q
  sys.stdout.flush()
  os.system('bin/submit-job %s %s %s %s %s' % (c, b, q, t, x))
  
#def try_fixed(c, q, j, b, t, x):
#  return False

def try_fixed(c, q, j, b, t, x):
  n=int(os.popen('llq -x |grep $USER | wc -l', 'r').readline())
  if j > n:
    do_submit(c, q, j, b, t, x)
    return True
  return False

def try_idle(c, q, j, b, t, x):
  return False

#def try_idle(c, q, j, b, t, x):
#  chk=os.popen('partlist | grep ^ANL-R0\[^\ \]\*%s | grep idle | wc -l' % (b), 'r')
#  n=int(chk.readline())  
#  if n > 0:
#     return try_fixed(c, q, j, b, t, x)
#  return False

def try_fill(c, q, j, b, t, x):
  return False

#def try_fill(c, q, j, b, t, x):
#  n=int(os.popen('cqstat -f | grep $USER | grep %s | grep " %s  *queued" | wc -l' % (q,b), 'r').readline())
#  if j > n:
#    do_submit(c, q, j, b, t, x)
#    return True
#  return False

def try_queues(qn, c):
  for ln in open(qn):
    qm = re.search('^([-0-9_a-zA-Z]+) +([0-9]+) +([:,a-zA-Z0-9]+) +([0-9:]+) +([a-z]*) +([^ \n]+)$', ln)
    if qm != None:
        queue    = qm.group(1)
        jobs     = int(qm.group(2))
        block    = qm.group(3)
        time     = qm.group(4)
        policy   = qm.group(5)
        project  = qm.group(6)
        if policy == 'idle' :
           status = try_idle(c, queue, jobs, block, time, project)
        elif policy == 'fixed' :
           status = try_fixed(c, queue, jobs, block, time, project)
        elif policy == 'fill' :
           status = try_fill(c, queue, jobs, block, time, project)
        else :
           print >> sys.stderr, 'Unexpected policy %s in file %s' % (policy, qn)
           exit(1)
        if status :
          return True
  return False

def do_one_conf(c, qn):
  submitfile = 'logs/%s/submitted' % (c)
  if not os.path.isfile(submitfile):
    print time.ctime(), ' trying', c
    while not try_queues(qn, c):
      print time.ctime(), ' waiting on', c
      sys.stdout.flush()
      time.sleep(submit_delay)
     

def process_confs(confs, qn):
  cf = open(confs)
  for conf in cf:
    cname=re.search('^[-0-9_A-Za-z]+', conf)
    if cname != None:
      do_one_conf(cname.group(), qn)

print time.ctime(), 'starting'
if len(sys.argv) != 3:
  sys.stderr.write('Usage: do-jobs confs queues\n')
  sys.exit(1)
else:
  process_confs(sys.argv[1], sys.argv[2])
  print time.ctime(), 'finishing'
  sys.exit(0)

